{
  "metainfo": {
    "keep_workspace": true
  },
  "parameter": [

    {
      "name": "dem",
      "value": "dem.tif"
    },
    {
      "name": "aoi",
      "value": "aoi.shp"
    },
    {
      "name": "weather stations",
      "value": "climate.shp"
    },
    {
      "name": "weather-data",
      "value": 1,
      "description": "1 = use gridded if no climate data, 2 = use weather data only, 3 = use gridded only"
    },
    {
      "name": "user-email",
      "value": "email address",
      "description": "optional, the email to send the results to"
    },
    {
      "name": "NDVI",
      "value": true,
      "description": "optional"
    },
    {
      "name": "USER_MAX_CLOUD_PERC",
      "value": 50
    },
    {
      "name": "USER_CLOUD_BUFFER",
      "value": 20,
      "description": "optional"
    },
    {
      "name": "USER_COLD_BUFFER",
      "value": 20,
      "description": "optional"
    },
    {
      "name": "LS7_FILL_GAP",
      "value": false,
      "description": "optional"
    },
    {
      "name": "USER_UNCALIB",
      "value": false,
      "description": "optional"
    },
    {
      "name": "DEBUG_FLAG",
      "value": false,
      "description": "optional"
    }
  ]
}